[
{"name": ["Fire TV Stick mit Alexa-Sprachfernbedienung"], "rating": ["4,6 von 5 Sternen"], "ASIN": ["B0791YHVMT"], "numOfReviews": ["10.310"], "url": "https://www.amazon.de/Amazon-Fire-TV-Stick-Alexa-Sprachfernbedienung/dp/B0791YHVMT?_encoding=UTF8&psc=1", "price": ["39,99\u00a0\u20ac"]},
{"name": ["Tickwatch Pro Silver"], "rating": [], "ASIN": [], "numOfReviews": [], "url": "https://www.amazon.de/Tickwatch-Pro-Silver/dp/B07DQMB5LF?_encoding=UTF8&psc=1", "price": ["296,00\u00a0\u20ac"]},
{"name": ["vau Glas kompatibel mit iPhone XR, iPhone 11 - Panzerglas Pro Schutzfolie 3 x Folie Vorne + Installationswerkzeug Displayschutzfolie Front (kompatibel zu Apple iPhone 10r / XI 6.1 LCD)"], "rating": ["4,4 von 5 Sternen"], "ASIN": ["B07GH32Q2L"], "numOfReviews": ["989"], "url": "https://www.amazon.de/vau-Schutzfolie-Panzerglasfolie-Installationswerkzeug-Displayschutzfolie-clear/dp/B07GH32Q2L?_encoding=UTF8&psc=1", "price": ["8,90\u00a0\u20ac"]},
{"name": ["AmazonBasics HL-007306 Hochgeschwindigkeits-HDMI-Kabel 2.0, Ethernet, 3D, 4K-Videowiedergabe und ARC, Ultra-HD1.8m, Schwarz"], "rating": ["4,6 von 5 Sternen"], "ASIN": ["B014I8SSD0"], "numOfReviews": ["3.510"], "url": "https://www.amazon.de/AmazonBasics-HL-007306-Hochgeschwindigkeits-HDMI-Kabel-Ethernet-4K-Videowiedergabe-Schwarz/dp/B014I8SSD0?_encoding=UTF8&psc=1", "price": ["5,59\u00a0\u20ac"]},
{"name": ["Bluetooth Kopfh\u00f6rer, ENACFIRE E18 Bluetooth Kopfh\u00f6rer in Ear Bluetooth 5.0 Headset Stereo-Minikopfh\u00f6rer Sport Kabellose Bluetooth Kopfh\u00f6rer mit Portable Mini Ladek\u00e4stchen und Integriertem Mikrofon"], "rating": ["4,3 von 5 Sternen"], "ASIN": ["B07J694TB1"], "numOfReviews": ["2.621"], "url": "https://www.amazon.de/Bluetooth-Kopfh%C3%B6rer-Stereo-Minikopfh%C3%B6rer-Ladek%C3%A4stchen-Integriertem/dp/B07J694TB1?_encoding=UTF8&psc=1", "price": ["33,20\u00a0\u20ac"]},
{"name": ["[2 St\u00fcck] OMOTON Panzerglasfolie kompatibel mit iPhone 6s und iPhone 6, 9H H\u00e4rte, Anti-Kratzen, Anti-\u00d6l, Anti-Bl\u00e4schen, lebenslange Garantie"], "rating": ["4,4 von 5 Sternen"], "ASIN": ["B01EY78FQU"], "numOfReviews": ["2.951"], "url": "https://www.amazon.de/OMOTON-Displayschutzfolie-Anti-Kratzen-Anti-Bl%C3%A4schen-lebenslange-durchsichtig/dp/B01EY78FQU?_encoding=UTF8&psc=1", "price": ["6,99\u00a0\u20ac"]},
{"name": ["Fire\u00a0TV\u00a0Stick\u00a04K Ultra HD mit Alexa-Sprachfernbedienung"], "rating": ["4,6 von 5 Sternen"], "ASIN": ["B079QHMFWC"], "numOfReviews": ["7.630"], "url": "https://www.amazon.de/Amazon-Fire-TV-Stick-4K-Ultra-Hd-Alexa-Sprachfernbedienung-Alexa/dp/B079QHMFWC?_encoding=UTF8&psc=1", "price": ["59,99\u00a0\u20ac"]},
{"name": ["[2 St\u00fcck] OMOTON Panzerglas Schutzfolie f\u00fcr iPhone XS / iPhone X, iPhone XS / iPhone x Displayschutzfolie mit Positionierhilfe, 9H H\u00e4rte, Anti-Kratzen, Anti-\u00d6l, Anti-Bl\u00e4schen, [5.8 zoll]"], "rating": ["4,1 von 5 Sternen"], "ASIN": ["B074BWH4BQ"], "numOfReviews": ["1.840"], "url": "https://www.amazon.de/OMOTON-iPhone-Displayschutzfolie-Positionierhilfe-Anti-Bl%C3%A4schen-durchsichtig/dp/B074BWH4BQ?_encoding=UTF8&psc=1", "price": ["7,99\u00a0\u20ac"]},
{"name": ["OMOTON [3 St\u00fcck] Schutzfolie kompatibel f\u00fcr iPhone 7/ iPhone 8, 9H H\u00e4rte, Anti-Kratzen, Anti-\u00d6l, Anti-Bl\u00e4schen"], "rating": ["4,2 von 5 Sternen"], "ASIN": ["B0787ZLSWZ"], "numOfReviews": ["1.183"], "url": "https://www.amazon.de/OMOTON-Schutzfolie-iPhone-Anti-Kratzen-Anti-Bl%C3%A4schen-durchsichtig/dp/B0787ZLSWZ?_encoding=UTF8&psc=1", "price": ["7,99\u00a0\u20ac"]},
{"name": ["OMOTON [3 St\u00fcck] Panzerglasfolie f\u00fcr iPhone 11 und iPhone XR [6.1 Zoll], mit Positionierhilfe, 9H H\u00e4rte, Anti-Kratzen, Anti-\u00d6l, Anti-Bl\u00e4schen, H\u00fclle Freundllich, [2.5D Runde Kante]"], "rating": ["4,6 von 5 Sternen"], "ASIN": ["B07GB3XJYZ"], "numOfReviews": ["371"], "url": "https://www.amazon.de/OMOTON-Schutzfolie-Positionierhilfe-Anti-Kratzen-Anti-Bl%C3%A4schen-durchsichtig/dp/B07GB3XJYZ?_encoding=UTF8&psc=1", "price": ["7,96\u00a0\u20ac"]},
{"name": ["Amazon Smart Plug (WLAN-Steckdose), funktioniert  mit Alexa"], "rating": ["4,6 von 5 Sternen"], "ASIN": ["B01MZEEFBA"], "numOfReviews": ["2.815"], "url": "https://www.amazon.de/Amazon-Smart-Plug/dp/B01MZEEFBA?_encoding=UTF8&psc=1", "price": ["29,99\u00a0\u20ac"]},
{"name": ["Sony WH-1000XM3 Bluetooth Noise Cancelling Kopfh\u00f6rer (30h Akku, Touch Sensor, Headphones Connect App, Schnellladefunktion, Amazon Alexa) schwarz"], "rating": ["4,4 von 5 Sternen"], "ASIN": ["B07GDR2LYK"], "numOfReviews": ["760"], "url": "https://www.amazon.de/Sony-WH-1000XM3-Cancelling-Headphones-Schnellladefunktion-Schwarz/dp/B07GDR2LYK?_encoding=UTF8&psc=1", "price": ["249,00\u00a0\u20ac"]},
{"name": ["Beikell [4 St\u00fcck Displayschutzfolie f\u00fcr iPhone 8, iPhone 7, iPhone 6S und iPhone 6, Geh\u00e4rtetes Glas Schutzfolie [4,7 Zoll], 9H H\u00e4rte, Kratzfest, Blasenfrei"], "rating": ["4,3 von 5 Sternen"], "ASIN": ["B07K88MDQL"], "numOfReviews": ["600"], "url": "https://www.amazon.de/Beikell-Panzerglas-Displayschutzfolie-Geh%C3%A4rtetes-Schutzfolie-durchsichtig/dp/B07K88MDQL?_encoding=UTF8&psc=1", "price": ["6,99\u00a0\u20ac"]},
{"name": ["Handy Autohalterung, Lamicall Auto Vent Halterung : Universal 360 Grad Drehung KFZ L\u00fcftung Halter f\u00fcr Phone 11 Pro, Xs Max, XR, X, 8, 7, 6, Samsung S10 S9 S8 S7 S6, Huawei, andere Smartphone - Schwarz"], "rating": ["4,7 von 5 Sternen"], "ASIN": ["B07GQGX855"], "numOfReviews": ["2.925"], "url": "https://www.amazon.de/Lamicall-Handy-Autohalterung-Auto-Halterung-Schwarz/dp/B07GQGX855?_encoding=UTF8&psc=1", "price": ["9,99\u00a0\u20ac"]},
{"name": ["AmazonBasics Lightning auf USB A Kabel, Apple MFi Zertifiziert - Wei\u00df, 0,9 m, 1er Pack"], "rating": ["4,3 von 5 Sternen"], "ASIN": ["B07DC4RZPY"], "numOfReviews": ["3.304"], "url": "https://www.amazon.de/AmazonBasics-Lightning-Kabel-Apple-Zertifiziert/dp/B07DC4RZPY?_encoding=UTF8&psc=1", "price": ["5,99\u00a0\u20ac"]},
{"name": ["AVM FRITZ!Fon C5 DECT-Komforttelefon (hochwertiges Farbdisplay, HD-Telefonie, Internet-/Komfortdienste, Steuerung FRITZ!Box-Funktionen) schwarz, deutschsprachige Version"], "rating": ["4,5 von 5 Sternen"], "ASIN": ["B01BBWWFB2"], "numOfReviews": ["3.545"], "url": "https://www.amazon.de/AVM-DECT-Komforttelefon-Komfortdienste-Box-Funktionen-deutschsprachige-Schwarz/dp/B01BBWWFB2?_encoding=UTF8&psc=1", "price": ["54,99\u00a0\u20ac"]},
{"name": ["Anker iPhone Ladekabel Powerline II iPhone Kabel 0,9m Lightning Kabel, [Apple MFi-Zertifiziert] f\u00fcr iPhone XS/XS Max/XR/X/ 8/8 Plus/SE/ 7/7 Plus/ 6s/ 6/6 Plus/ 5S/ 5/ iPad Pro (Wei\u00df)"], "rating": ["4,4 von 5 Sternen"], "ASIN": ["B06XFK2H8Z"], "numOfReviews": ["1.703"], "url": "https://www.amazon.de/Anker-Ladekabel-Powerline-Lightning-MFi-Zertifiziert-Wei%C3%9F/dp/B06XFK2H8Z?_encoding=UTF8&psc=1", "price": ["5,99\u00a0\u20ac"]},
{"name": ["Echo Dot (3. Gen.) Intelligenter Lautsprecher mit Alexa, Anthrazit Stoff"], "rating": ["4,6 von 5 Sternen"], "ASIN": ["B07PHPXHQS"], "numOfReviews": ["15.510"], "url": "https://www.amazon.de/Echo-Dot-3-Gen-Intelligenter-Lautsprecher-mit-Alexa-Anthrazit-Stoff/dp/B07PHPXHQS?_encoding=UTF8&psc=1", "price": ["42,99\u00a0\u20ac"]},
{"name": ["Poweradd Pilot X7 20000mAh Externer Akku Power Bank Power Pack Ladeger\u00e4t"], "rating": ["4,4 von 5 Sternen"], "ASIN": ["B00P7QM5UK"], "numOfReviews": ["2.382"], "url": "https://www.amazon.de/Poweradd-Pilot-20000mAh-Externer-Ladeger%C3%A4t-Schwarz/dp/B00P7QM5UK?_encoding=UTF8&psc=1", "price": ["19,99\u00a0\u20ac"]},
{"name": ["RICOO TV Wandhalterung R23 Universal f\u00fcr 32-65 Zoll (ca. 81-165cm) Schwenkbar Neigbar | Wand Halter Aufh\u00e4ngung Fernseh Halterung auch f\u00fcr Curved LCD und LED Fernseher | VESA 200x100 400x400 | Schwarz"], "rating": ["4,8 von 5 Sternen"], "ASIN": ["B006FEFBHC"], "numOfReviews": ["5.287"], "url": "https://www.amazon.de/RICOO-Wandhalterung-Schwenkbar-Wandhalter-Flachbildfernseher/dp/B006FEFBHC?_encoding=UTF8&psc=1", "price": ["39,99\u00a0\u20ac"]},
{"name": ["UNBREAKcable [2 St\u00fcck] Panzerglas Schutzfolie f\u00fcr iPhone 8/iPhone 7/6s/6, 2,5D Double Defense Displayschutzfolie mit Positionierhilfe f\u00fcr iPhone 8/7/6s/6, [4,7 Zoll, Kratzfest, Anti-Fingerprint]"], "rating": ["4,3 von 5 Sternen"], "ASIN": ["B07JNRB6NQ"], "numOfReviews": ["300"], "url": "https://www.amazon.de/UNBREAKcable-Schutzfolie-Displayschutzfolie-Positionierhilfe-Anti-Fingerprint-iPhone-6s-6-7-8/dp/B07JNRB6NQ?_encoding=UTF8&psc=1", "price": ["8,99\u00a0\u20ac"]},
{"name": ["AmazonBasics Vorgeladene Ni-MH AAA-Akkus - Akkubatterien (1.000 Zyklen, typisch 800mAh,  1.2 V ,minimal 750mAh) 8 Stck (\u00c4u\u00dfere H\u00fclle kann von Darstellung abweichen)"], "rating": ["4,3 von 5 Sternen"], "ASIN": ["B00CWNMXQW"], "numOfReviews": ["1.341"], "url": "https://www.amazon.de/AmazonBasics-Vorgeladene-Ni-MH-AAA-Akkus-Akkubatterien-Wei%C3%9F/dp/B00CWNMXQW?_encoding=UTF8&psc=1", "price": ["11,99\u00a0\u20ac"]},
{"name": ["USB Typ C Kabel, [4Pack 0.5M 1M 2M 3M] 3A USB C Ladekabel und Datenkabel Fast Charge Sync schnellladekabel f\u00fcr Samsung Galaxy S10/S9/S8+, Huawei P30/P20, Google Pixel, Sony Xperia XZ, OnePlus 6T"], "rating": ["4,3 von 5 Sternen"], "ASIN": ["B07HRM4XVL"], "numOfReviews": ["245"], "url": "https://www.amazon.de/JUFD-geflochten-Ladekabel-Datenkabel-schnellladekabel-Schwarz/dp/B07HRM4XVL?_encoding=UTF8&psc=1", "price": ["8,99\u00a0\u20ac"]},
{"name": ["AUKEY Handyhalterung Auto Magnet L\u00fcftung KFZ Halterung Universal f\u00fcr iPhone 7 / 6s / 6 / 5s / 5, Samsung S8 und jedes andere Smartphone oder GPS-Ger\u00e4t"], "rating": ["4,5 von 5 Sternen"], "ASIN": ["B00ZFQZNBK"], "numOfReviews": ["3.588"], "url": "https://www.amazon.de/AUKEY-Handyhalterung-Halterung-Universal-Smartphone-Grau/dp/B00ZFQZNBK?_encoding=UTF8&psc=1", "price": ["5,04\u00a0\u20ac"]},
{"name": ["Anker Ultra Slim Extra Leicht 4 Port USB 3.0 Hub, Datenhub f\u00fcr MacBook, MacBook Air / Pro / Mini, iMac, MacPro, Windows Laptops und Ultrabooks, sowie PCs und mehr (Schwarz)"], "rating": ["4,5 von 5 Sternen"], "ASIN": ["B00Y211AFM"], "numOfReviews": ["1.754"], "url": "https://www.amazon.de/Anker-Datenhub-Ultrabooks-weiteren-kompatiblen/dp/B00Y211AFM?_encoding=UTF8&psc=1", "price": ["9,99\u00a0\u20ac"]},
{"name": ["Amazon Ethernetadapter f\u00fcr Fire TV und Fire TV Stick mit Alexa-Sprachfernbedienung (2017 Modelle), Fire TV Stick Basic-Edition und Fire TV Stick 4K"], "rating": ["4,5 von 5 Sternen"], "ASIN": ["B01LXP5TXI"], "numOfReviews": ["1.085"], "url": "https://www.amazon.de/Amazon-Ethernetadapter-Alexa-Sprachfernbedienung-Modelle-Basic/dp/B01LXP5TXI?_encoding=UTF8&psc=1", "price": ["14,99\u00a0\u20ac"]},
{"name": ["Power Theory Panzerglasfolie kompatibel mit iPhone 7/8 (2 St\u00fcck) - Japanische 9H Panzerglas Folie, HD Displayschutzfolie/Panzerfolie, Tempered Glas Schutzglas, Schutzfolie Screen Protector Glass"], "rating": ["4,4 von 5 Sternen"], "ASIN": ["B01MPWZ4M7"], "numOfReviews": ["2.876"], "url": "https://www.amazon.de/Power-Theory-iPhone-Panzerglasfolie-St%C3%BCck-Transparent/dp/B01MPWZ4M7?_encoding=UTF8&psc=1", "price": ["12,95\u00a0\u20ac"]},
{"name": ["Anker PowerWave Wireless Charger Ladepad, Kabelloses 10W Ladeger\u00e4t, Qi-Zertifiziert, Kompatibel mit iphone 11/11 Pro/11 Pro max/XR/XS/X/8,10W Schnellladungen, Samsung Galaxy S10/S9 / S9+ /S8/S8+ usw."], "rating": ["4,4 von 5 Sternen"], "ASIN": ["B07DBX67NC"], "numOfReviews": ["625"], "url": "https://www.amazon.de/Anker-Kabelloses-Qi-Zertifiziert-Kompatibel-Schnellladungen-Schwarz/dp/B07DBX67NC?_encoding=UTF8&psc=1", "price": ["13,59\u00a0\u20ac"]},
{"name": ["Samsung Original Typ C Ladeger\u00e4t Schnellladeger\u00e4t EP-TA20EBE Farbe Schwarz inkl. USB Typ-C Ladekabel Schnellladekabel Galaxy S8 S8+ S9 Plus S9+ A3 A5 A7 2017 USB-C"], "rating": ["3,7 von 5 Sternen"], "ASIN": ["B07DX39RNS"], "numOfReviews": ["665"], "url": "https://www.amazon.de/Samsung-Ladeger%C3%A4t-Schnellladeger%C3%A4t-EP-TA20EBE-Schnellladekabel-Schwarz/dp/B07DX39RNS?_encoding=UTF8&psc=1", "price": ["9,91\u00a0\u20ac"]},
{"name": ["UNBREAKcable Panzerglas [2er Pack] Panzerglasfolie Kompatibel mit iPhone 11 Pro/XS/X/10 (5.8 Zoll), 2.5D Double Defense Series Displayschutzfolie, Kratzfest, Anti-Fingerprint, und Blasenfrei"], "rating": ["4,3 von 5 Sternen"], "ASIN": ["B07JNJGM1G"], "numOfReviews": ["398"], "url": "https://www.amazon.de/UNBREAKcable-Panzerglasfolie-Displayschutzfolie-Anti-Fingerprint-kofferfreundlich-Durchsichtig/dp/B07JNJGM1G?_encoding=UTF8&psc=1", "price": ["9,85\u00a0\u20ac"]},
{"name": ["Spigen, 2 St\u00fcck, Panzerglasfolie kompatibel mit iPhone 11, iPhone XR, Glas.tR EZ Fit, mit Schablone f\u00fcr Installation, 9H geh\u00e4rtes Glas, H\u00fcllenfreundlich, Schutzfolie f\u00fcr iPhone 11 (064GL25166)"], "rating": ["4,6 von 5 Sternen"], "ASIN": ["B07GX33WVR"], "numOfReviews": ["283"], "url": "https://www.amazon.de/Spigen-Panzerglasfolie-Installation-H%C3%BCllenfreundlich-064GL25166-durchsichtig/dp/B07GX33WVR?_encoding=UTF8&psc=1", "price": ["11,99\u00a0\u20ac"]},
{"name": ["[4 St\u00fcck] OMOTON Schutzfolie f\u00fcr iphone 11 pro und iphone X und iphone XS Mit Positionierhilfe Panzerglasfolie f\u00fcr iphone 11 Pro/ XS/ X [9H H\u00e4rte], [Anti-Kratzen], [Anti-\u00d6l], [Anti-Bl\u00e4schen]."], "rating": ["4,6 von 5 Sternen"], "ASIN": ["B07PFSC6CW"], "numOfReviews": ["146"], "url": "https://www.amazon.de/OMOTON-Positionierhilfe-Panzerglasfolie-Anti-Kratzen-Anti-Bl%C3%A4schen-durchsichtig/dp/B07PFSC6CW?_encoding=UTF8&psc=1", "price": ["7,99\u00a0\u20ac"]},
{"name": ["Batterie Knopfzelle 10 St\u00fcck AG 13 LR44"], "rating": ["4,5 von 5 Sternen"], "ASIN": ["B00GMED7YO"], "numOfReviews": ["229"], "url": "https://www.amazon.de/Batterie-Knopfzelle-St%C3%BCck-Camelion-Alkaline/dp/B00GMED7YO?_encoding=UTF8&psc=1", "price": ["2,45\u00a0\u20ac"]},
{"name": ["VARTA Batterien Electronics CR2025 Lithium Knopfzelle (3V Batterie, 5er Pack Knopfzellen in Original 5er Blisterverpackung)"], "rating": ["4,3 von 5 Sternen"], "ASIN": ["B006XE8DEC"], "numOfReviews": ["450"], "url": "https://www.amazon.de/Varta-Electronics-CR2025-Knopfzellen-Blisterverpackung-Silber/dp/B006XE8DEC?_encoding=UTF8&psc=1", "price": ["3,22\u00a0\u20ac"]},
{"name": ["VARTA Batterien Electronics Lithium Knopfzelle 3V Batterie 5er Pack Knopfzellen in Original 5er Blisterverpackung, CR2032"], "rating": ["4,4 von 5 Sternen"], "ASIN": ["B00TYEL11K"], "numOfReviews": ["1.726"], "url": "https://www.amazon.de/Varta-Electronics-Knopfzelle-Knopfzellen-Blisterverpackung/dp/B00TYEL11K?_encoding=UTF8&psc=1", "price": ["4,17\u00a0\u20ac"]},
{"name": ["AmazonBasics Verbindungskabel Lightning-auf-USB-A, Nylon, geflochten, 1,8 m, zertifiziert von Apple, Dunkelgrau"], "rating": ["4,5 von 5 Sternen"], "ASIN": ["B01F9RH0R4"], "numOfReviews": ["1.282"], "url": "https://www.amazon.de/AmazonBasics-Verbindungskabel-Lightning-auf-USB-geflochten-zertifiziert/dp/B01F9RH0R4?_encoding=UTF8&psc=1", "price": ["7,99\u00a0\u20ac"]},
{"name": ["TORRAS Ultra Clear iPhone 11 Pro H\u00fclle(5.8) Transparent & Anti Gelb Aufger\u00fcstet Material Handyh\u00fclle iPhone 11 Pro Case Hart PC Back& Weich TPU Bumper Klar Schutzh\u00fclle f\u00fcr iPhone 11 Pro - Transparent"], "rating": ["4,9 von 5 Sternen"], "ASIN": ["B07VX691CC"], "numOfReviews": ["45"], "url": "https://www.amazon.de/TORRAS-Transparent-Aufger%C3%BCstet-Handyh%C3%BClle-Schutzh%C3%BClle/dp/B07VX691CC?_encoding=UTF8&psc=1", "price": ["15,99\u00a0\u20ac"]},
{"name": ["\u3010Neuestes Modell\u3011 Antimi Bluetooth Kopfh\u00f6rer Kabellos in Ear Kopfhoerer Sport Wireless Bluetooth 5.0 Headset mit 140 Stunden Spielzeit/Digitalanzeige/IPX7 Wasserdicht f\u00fcr iPhone Huawei Samsung"], "rating": ["4,8 von 5 Sternen"], "ASIN": ["B07NQ7ZN4C"], "numOfReviews": ["505"], "url": "https://www.amazon.de/%E3%80%90Neuestes-Antimi-Kopfhoerer-Digitalanzeige-Wasserdicht/dp/B07NQ7ZN4C?_encoding=UTF8&psc=1", "price": ["45,98\u00a0\u20ac"]},
{"name": ["Anker Powerbank, PowerCore 20100mAh Externer Akku, hohe Kapazit\u00e4t 2-Port 4,8 A Output Ladeger\u00e4t mit PowerIQ Technologie f\u00fcr iPhone, iPad, Samsung Galaxy und viele mehr (in Schwarz/Matt)"], "rating": ["4,5 von 5 Sternen"], "ASIN": ["B00VJT3IUA"], "numOfReviews": ["7.786"], "url": "https://www.amazon.de/Anker-PowerCore-Powerbank-Kapazit%C3%A4t-Technologie-Schwarz/dp/B00VJT3IUA?_encoding=UTF8&psc=1", "price": ["29,99\u00a0\u20ac"]},
{"name": ["Anker iPhone Ladekabel, Lightning Kabel 2-Pack 1.8m Nylon iPhone Kabel [MFi Zertifiziert] f\u00fcr iPhone XR iPhone 7,iPhone X,iPhone 8,iPhone 6s iPhone 6, iPhone 7, iPhone XS/XS MAX/8 Plus (Grau)"], "rating": ["4,4 von 5 Sternen"], "ASIN": ["B01JS1WJP0"], "numOfReviews": ["1.949"], "url": "https://www.amazon.de/Anker-Lightning-Ladekabel-Zertifiziert-weitere-Grau/dp/B01JS1WJP0?_encoding=UTF8&psc=1", "price": ["15,99\u00a0\u20ac"]},
{"name": ["AmazonBasics Vorgeladene Ni-MH AA-Akkus - Akkubatterien (1.000 Zyklen, typisch 2000mAh, minimal 1900mAh) 8 Stck (\u00c4u\u00dfere H\u00fclle kann von Darstellung abweichen)"], "rating": ["4,3 von 5 Sternen"], "ASIN": ["B00CWNMV4G"], "numOfReviews": ["1.348"], "url": "https://www.amazon.de/AmazonBasics-Vorgeladene-Ni-MH-AA-Akkus-Akkubatterien-Wei%C3%9F/dp/B00CWNMV4G?_encoding=UTF8&psc=1", "price": ["13,99\u00a0\u20ac"]},
{"name": ["LG Nexus 5\u00a0Nexus 5\u00a0X 32\u00a0GB 32\u00a0GB schwarz\u00a0\u2013\u00a0Smartphone (Android, Android 6.0\u00a0Marshmallow, Balken, Kein Abonnement, Qualcomm Snapdragon, LPDDR3)"], "rating": [], "ASIN": [], "numOfReviews": [], "url": "https://www.amazon.de", "price": []},
{"name": ["Echo Dot (3. Gen.) Intelligenter Lautsprecher mit Alexa, Sandstein Stoff"], "rating": ["4,6 von 5 Sternen"], "ASIN": ["B07PDHSPXT"], "numOfReviews": ["16.309"], "url": "https://www.amazon.de/Echo-Dot-3-Gen-Intelligenter-Lautsprecher-mit-Alexa-Sandstein-Stoff/dp/B07PDHSPXT?_encoding=UTF8&psc=1", "price": ["42,99\u00a0\u20ac"]},
{"name": ["CBBH Bluetooth Kopfh\u00f6rer, in Ear Bluetooth 5.0 Headset Stereo-Minikopfh\u00f6rer Sport Kabellose Kopfh\u00f6rer mit Portable Mini Ladek\u00e4stchen und Integriertem Mikrofon f\u00fcr Apple Airpod Android iPhone"], "rating": ["4,8 von 5 Sternen"], "ASIN": ["B07WGSWGNY"], "numOfReviews": ["111"], "url": "https://www.amazon.de/CBBH-Bluetooth-Stereo-Minikopfh%C3%B6rer-Ladek%C3%A4stchen-Integriertem-white/dp/B07WGSWGNY?_encoding=UTF8&psc=1", "price": ["33,48\u00a0\u20ac"]},
{"name": ["JETech H\u00fclle f\u00fcr iPad (9,7 Zoll, Modell 2018/2017, 6. / 5. Generation), Intelligent Schutzh\u00fclle mit Auto Schlafen/Wachen, Schwarz"], "rating": ["4,6 von 5 Sternen"], "ASIN": ["B06XZH8SKF"], "numOfReviews": ["2.297"], "url": "https://www.amazon.de/JETech-Intelligent-Schutzh%C3%BClle-Funktion-Schlafen-Schwarz/dp/B06XZH8SKF?_encoding=UTF8&psc=1", "price": ["9,99\u00a0\u20ac"]},
{"name": ["UNBREAKcable iPhone Ladekabel, Lightning Kabel - 1M [MFi-Zertifiziert] - Datenkabel geeignet f\u00fcr iPhone X iPhone 8, iPhone 6s iPhone 6, iPhone 7, iPhone XS/XS MAX/XR, iPad Air (Silber-Grau)"], "rating": ["4,3 von 5 Sternen"], "ASIN": ["B07D6NGPNS"], "numOfReviews": ["770"], "url": "https://www.amazon.de/UNBREAKcable-iPhone-Ladekabel-Lightning-Kabel-Silber-Grau/dp/B07D6NGPNS?_encoding=UTF8&psc=1", "price": ["8,99\u00a0\u20ac"]},
{"name": ["Samsung Galaxy M20 Smartphone (16.0cm (6.3 Zoll) 64GB interner Speicher, 4GB RAM, Charcoal Black) - Deutsche Version [Exklusiv bei Amazon]"], "rating": ["4,4 von 5 Sternen"], "ASIN": ["B07NH3C1KN"], "numOfReviews": ["431"], "url": "https://www.amazon.de/Samsung-Smartphone-interner-Speicher-Charcoal-Black/dp/B07NH3C1KN?_encoding=UTF8&psc=1", "price": ["229,00\u00a0\u20ac"]},
{"name": ["OMOTON [3 St\u00fcck] Schutzfolie f\u00fcr iPhone 8 Plus/iPhone 7 Plus [5,5 Zoll], mit Schablone,9H H\u00e4rte,Anti-Kratzer,Anti-\u00d6l,Anti-Bl\u00e4schen"], "rating": ["4,3 von 5 Sternen"], "ASIN": ["B0787SZTQV"], "numOfReviews": ["1.157"], "url": "https://www.amazon.de/OMOTON-Schutzfolie-Plus-Anti-Kratzer-Anti-Bl%C3%A4schen-durchsichtig/dp/B0787SZTQV?_encoding=UTF8&psc=1", "price": ["8,99\u00a0\u20ac"]},
{"name": ["JBL T110\u00a0In-Ear-Kopfh\u00f6rer mit Steuerung und Mikrofon schwarz"], "rating": ["4,0 von 5 Sternen"], "ASIN": ["B01MG62Z5M"], "numOfReviews": ["858"], "url": "https://www.amazon.de/JBL-Ear-Kopfh%C3%B6rer-Steuerung-Mikrofon-schwarz/dp/B01MG62Z5M?_encoding=UTF8&psc=1", "price": ["9,99\u00a0\u20ac"]},
{"name": ["Handyhalter f\u00fcrs Auto Handyhalterung Auto Smartphone Halterung KFZ Handy Halter f\u00fcr Auto KFZ Handy Halterung f\u00fcr iPhone ,Samsung ,HTC,LG,HuaWei und jedes andere Smartphone oder GPS-Ger\u00e4t, Autozubeh\u00f6r."], "rating": ["4,5 von 5 Sternen"], "ASIN": ["B079CKJ1MP"], "numOfReviews": ["717"], "url": "https://www.amazon.de/Handyhalter-Handyhalterung-Smartphone-Halterung-Autozubeh%C3%B6r-black/dp/B079CKJ1MP?_encoding=UTF8&psc=1", "price": ["9,99\u00a0\u20ac"]}
]