ASIN,name,numOfReviews,price,rating,url
B0791YHVMT,Fire TV Stick mit Alexa-Sprachfernbedienung,10.310,"39,99 €","4,6 von 5 Sternen",https://www.amazon.de/Amazon-Fire-TV-Stick-Alexa-Sprachfernbedienung/dp/B0791YHVMT?_encoding=UTF8&psc=1
,Tickwatch Pro Silver,,"296,00 €",,https://www.amazon.de/Tickwatch-Pro-Silver/dp/B07DQMB5LF?_encoding=UTF8&psc=1
B07GH32Q2L,"vau Glas kompatibel mit iPhone XR, iPhone 11 - Panzerglas Pro Schutzfolie 3 x Folie Vorne + Installationswerkzeug Displayschutzfolie Front (kompatibel zu Apple iPhone 10r / XI 6.1 LCD)",989,"8,90 €","4,4 von 5 Sternen",https://www.amazon.de/vau-Schutzfolie-Panzerglasfolie-Installationswerkzeug-Displayschutzfolie-clear/dp/B07GH32Q2L?_encoding=UTF8&psc=1
B014I8SSD0,"AmazonBasics HL-007306 Hochgeschwindigkeits-HDMI-Kabel 2.0, Ethernet, 3D, 4K-Videowiedergabe und ARC, Ultra-HD1.8m, Schwarz",3.510,"5,59 €","4,6 von 5 Sternen",https://www.amazon.de/AmazonBasics-HL-007306-Hochgeschwindigkeits-HDMI-Kabel-Ethernet-4K-Videowiedergabe-Schwarz/dp/B014I8SSD0?_encoding=UTF8&psc=1
B07J694TB1,"Bluetooth Kopfhörer, ENACFIRE E18 Bluetooth Kopfhörer in Ear Bluetooth 5.0 Headset Stereo-Minikopfhörer Sport Kabellose Bluetooth Kopfhörer mit Portable Mini Ladekästchen und Integriertem Mikrofon",2.621,"33,20 €","4,3 von 5 Sternen",https://www.amazon.de/Bluetooth-Kopfh%C3%B6rer-Stereo-Minikopfh%C3%B6rer-Ladek%C3%A4stchen-Integriertem/dp/B07J694TB1?_encoding=UTF8&psc=1
B01EY78FQU,"[2 Stück] OMOTON Panzerglasfolie kompatibel mit iPhone 6s und iPhone 6, 9H Härte, Anti-Kratzen, Anti-Öl, Anti-Bläschen, lebenslange Garantie",2.951,"6,99 €","4,4 von 5 Sternen",https://www.amazon.de/OMOTON-Displayschutzfolie-Anti-Kratzen-Anti-Bl%C3%A4schen-lebenslange-durchsichtig/dp/B01EY78FQU?_encoding=UTF8&psc=1
B079QHMFWC,Fire TV Stick 4K Ultra HD mit Alexa-Sprachfernbedienung,7.630,"59,99 €","4,6 von 5 Sternen",https://www.amazon.de/Amazon-Fire-TV-Stick-4K-Ultra-Hd-Alexa-Sprachfernbedienung-Alexa/dp/B079QHMFWC?_encoding=UTF8&psc=1
B074BWH4BQ,"[2 Stück] OMOTON Panzerglas Schutzfolie für iPhone XS / iPhone X, iPhone XS / iPhone x Displayschutzfolie mit Positionierhilfe, 9H Härte, Anti-Kratzen, Anti-Öl, Anti-Bläschen, [5.8 zoll]",1.840,"7,99 €","4,1 von 5 Sternen",https://www.amazon.de/OMOTON-iPhone-Displayschutzfolie-Positionierhilfe-Anti-Bl%C3%A4schen-durchsichtig/dp/B074BWH4BQ?_encoding=UTF8&psc=1
B0787ZLSWZ,"OMOTON [3 Stück] Schutzfolie kompatibel für iPhone 7/ iPhone 8, 9H Härte, Anti-Kratzen, Anti-Öl, Anti-Bläschen",1.183,"7,99 €","4,2 von 5 Sternen",https://www.amazon.de/OMOTON-Schutzfolie-iPhone-Anti-Kratzen-Anti-Bl%C3%A4schen-durchsichtig/dp/B0787ZLSWZ?_encoding=UTF8&psc=1
B07GB3XJYZ,"OMOTON [3 Stück] Panzerglasfolie für iPhone 11 und iPhone XR [6.1 Zoll], mit Positionierhilfe, 9H Härte, Anti-Kratzen, Anti-Öl, Anti-Bläschen, Hülle Freundllich, [2.5D Runde Kante]",371,"7,96 €","4,6 von 5 Sternen",https://www.amazon.de/OMOTON-Schutzfolie-Positionierhilfe-Anti-Kratzen-Anti-Bl%C3%A4schen-durchsichtig/dp/B07GB3XJYZ?_encoding=UTF8&psc=1
B01MZEEFBA,"Amazon Smart Plug (WLAN-Steckdose), funktioniert  mit Alexa",2.815,"29,99 €","4,6 von 5 Sternen",https://www.amazon.de/Amazon-Smart-Plug/dp/B01MZEEFBA?_encoding=UTF8&psc=1
B07GDR2LYK,"Sony WH-1000XM3 Bluetooth Noise Cancelling Kopfhörer (30h Akku, Touch Sensor, Headphones Connect App, Schnellladefunktion, Amazon Alexa) schwarz",760,"249,00 €","4,4 von 5 Sternen",https://www.amazon.de/Sony-WH-1000XM3-Cancelling-Headphones-Schnellladefunktion-Schwarz/dp/B07GDR2LYK?_encoding=UTF8&psc=1
B07K88MDQL,"Beikell [4 Stück Displayschutzfolie für iPhone 8, iPhone 7, iPhone 6S und iPhone 6, Gehärtetes Glas Schutzfolie [4,7 Zoll], 9H Härte, Kratzfest, Blasenfrei",600,"6,99 €","4,3 von 5 Sternen",https://www.amazon.de/Beikell-Panzerglas-Displayschutzfolie-Geh%C3%A4rtetes-Schutzfolie-durchsichtig/dp/B07K88MDQL?_encoding=UTF8&psc=1
B07GQGX855,"Handy Autohalterung, Lamicall Auto Vent Halterung : Universal 360 Grad Drehung KFZ Lüftung Halter für Phone 11 Pro, Xs Max, XR, X, 8, 7, 6, Samsung S10 S9 S8 S7 S6, Huawei, andere Smartphone - Schwarz",2.925,"9,99 €","4,7 von 5 Sternen",https://www.amazon.de/Lamicall-Handy-Autohalterung-Auto-Halterung-Schwarz/dp/B07GQGX855?_encoding=UTF8&psc=1
B07DC4RZPY,"AmazonBasics Lightning auf USB A Kabel, Apple MFi Zertifiziert - Weiß, 0,9 m, 1er Pack",3.304,"5,99 €","4,3 von 5 Sternen",https://www.amazon.de/AmazonBasics-Lightning-Kabel-Apple-Zertifiziert/dp/B07DC4RZPY?_encoding=UTF8&psc=1
B01BBWWFB2,"AVM FRITZ!Fon C5 DECT-Komforttelefon (hochwertiges Farbdisplay, HD-Telefonie, Internet-/Komfortdienste, Steuerung FRITZ!Box-Funktionen) schwarz, deutschsprachige Version",3.545,"54,99 €","4,5 von 5 Sternen",https://www.amazon.de/AVM-DECT-Komforttelefon-Komfortdienste-Box-Funktionen-deutschsprachige-Schwarz/dp/B01BBWWFB2?_encoding=UTF8&psc=1
B06XFK2H8Z,"Anker iPhone Ladekabel Powerline II iPhone Kabel 0,9m Lightning Kabel, [Apple MFi-Zertifiziert] für iPhone XS/XS Max/XR/X/ 8/8 Plus/SE/ 7/7 Plus/ 6s/ 6/6 Plus/ 5S/ 5/ iPad Pro (Weiß)",1.742,"5,99 €","4,4 von 5 Sternen",https://www.amazon.de/Anker-Ladekabel-Powerline-Lightning-MFi-Zertifiziert-Wei%C3%9F/dp/B06XFK2H8Z?_encoding=UTF8&psc=1
B07PHPXHQS,"Echo Dot (3. Gen.) Intelligenter Lautsprecher mit Alexa, Anthrazit Stoff",15.510,"42,99 €","4,6 von 5 Sternen",https://www.amazon.de/Echo-Dot-3-Gen-Intelligenter-Lautsprecher-mit-Alexa-Anthrazit-Stoff/dp/B07PHPXHQS?_encoding=UTF8&psc=1
B00P7QM5UK,Poweradd Pilot X7 20000mAh Externer Akku Power Bank Power Pack Ladegerät,2.382,"19,99 €","4,4 von 5 Sternen",https://www.amazon.de/Poweradd-Pilot-20000mAh-Externer-Ladeger%C3%A4t-Schwarz/dp/B00P7QM5UK?_encoding=UTF8&psc=1
B006FEFBHC,RICOO TV Wandhalterung R23 Universal für 32-65 Zoll (ca. 81-165cm) Schwenkbar Neigbar | Wand Halter Aufhängung Fernseh Halterung auch für Curved LCD und LED Fernseher | VESA 200x100 400x400 | Schwarz,5.287,"39,99 €","4,8 von 5 Sternen",https://www.amazon.de/RICOO-Wandhalterung-Schwenkbar-Wandhalter-Flachbildfernseher/dp/B006FEFBHC?_encoding=UTF8&psc=1
B07JNRB6NQ,"UNBREAKcable [2 Stück] Panzerglas Schutzfolie für iPhone 8/iPhone 7/6s/6, 2,5D Double Defense Displayschutzfolie mit Positionierhilfe für iPhone 8/7/6s/6, [4,7 Zoll, Kratzfest, Anti-Fingerprint]",300,"8,99 €","4,3 von 5 Sternen",https://www.amazon.de/UNBREAKcable-Schutzfolie-Displayschutzfolie-Positionierhilfe-Anti-Fingerprint-iPhone-6s-6-7-8/dp/B07JNRB6NQ?_encoding=UTF8&psc=1
B00CWNMXQW,"AmazonBasics Vorgeladene Ni-MH AAA-Akkus - Akkubatterien (1.000 Zyklen, typisch 800mAh,  1.2 V ,minimal 750mAh) 8 Stck (Äußere Hülle kann von Darstellung abweichen)",1.341,"11,99 €","4,3 von 5 Sternen",https://www.amazon.de/AmazonBasics-Vorgeladene-Ni-MH-AAA-Akkus-Akkubatterien-Wei%C3%9F/dp/B00CWNMXQW?_encoding=UTF8&psc=1
B07HRM4XVL,"USB Typ C Kabel, [4Pack 0.5M 1M 2M 3M] 3A USB C Ladekabel und Datenkabel Fast Charge Sync schnellladekabel für Samsung Galaxy S10/S9/S8+, Huawei P30/P20, Google Pixel, Sony Xperia XZ, OnePlus 6T",237,"8,99 €","4,3 von 5 Sternen",https://www.amazon.de/JUFD-geflochten-Ladekabel-Datenkabel-schnellladekabel-Schwarz/dp/B07HRM4XVL?_encoding=UTF8&psc=1
B00ZFQZNBK,"AUKEY Handyhalterung Auto Magnet Lüftung KFZ Halterung Universal für iPhone 7 / 6s / 6 / 5s / 5, Samsung S8 und jedes andere Smartphone oder GPS-Gerät",3.588,"5,04 €","4,5 von 5 Sternen",https://www.amazon.de/AUKEY-Handyhalterung-Halterung-Universal-Smartphone-Grau/dp/B00ZFQZNBK?_encoding=UTF8&psc=1
B00Y211AFM,"Anker Ultra Slim Extra Leicht 4 Port USB 3.0 Hub, Datenhub für MacBook, MacBook Air / Pro / Mini, iMac, MacPro, Windows Laptops und Ultrabooks, sowie PCs und mehr (Schwarz)",1.754,"9,99 €","4,5 von 5 Sternen",https://www.amazon.de/Anker-Datenhub-Ultrabooks-weiteren-kompatiblen/dp/B00Y211AFM?_encoding=UTF8&psc=1
B01LXP5TXI,"Amazon Ethernetadapter für Fire TV und Fire TV Stick mit Alexa-Sprachfernbedienung (2017 Modelle), Fire TV Stick Basic-Edition und Fire TV Stick 4K",1.085,"14,99 €","4,5 von 5 Sternen",https://www.amazon.de/Amazon-Ethernetadapter-Alexa-Sprachfernbedienung-Modelle-Basic/dp/B01LXP5TXI?_encoding=UTF8&psc=1
B01MPWZ4M7,"Power Theory Panzerglasfolie kompatibel mit iPhone 7/8 (2 Stück) - Japanische 9H Panzerglas Folie, HD Displayschutzfolie/Panzerfolie, Tempered Glas Schutzglas, Schutzfolie Screen Protector Glass",2.876,"12,95 €","4,4 von 5 Sternen",https://www.amazon.de/Power-Theory-iPhone-Panzerglasfolie-St%C3%BCck-Transparent/dp/B01MPWZ4M7?_encoding=UTF8&psc=1
B07DBX67NC,"Anker PowerWave Wireless Charger Ladepad, Kabelloses 10W Ladegerät, Qi-Zertifiziert, Kompatibel mit iphone 11/11 Pro/11 Pro max/XR/XS/X/8,10W Schnellladungen, Samsung Galaxy S10/S9 / S9+ /S8/S8+ usw.",625,"13,59 €","4,4 von 5 Sternen",https://www.amazon.de/Anker-Kabelloses-Qi-Zertifiziert-Kompatibel-Schnellladungen-Schwarz/dp/B07DBX67NC?_encoding=UTF8&psc=1
B07DX39RNS,Samsung Original Typ C Ladegerät Schnellladegerät EP-TA20EBE Farbe Schwarz inkl. USB Typ-C Ladekabel Schnellladekabel Galaxy S8 S8+ S9 Plus S9+ A3 A5 A7 2017 USB-C,697,"9,91 €","3,7 von 5 Sternen",https://www.amazon.de/Samsung-Ladeger%C3%A4t-Schnellladeger%C3%A4t-EP-TA20EBE-Schnellladekabel-Schwarz/dp/B07DX39RNS?_encoding=UTF8&psc=1
B07JNJGM1G,"UNBREAKcable Panzerglas [2er Pack] Panzerglasfolie Kompatibel mit iPhone 11 Pro/XS/X/10 (5.8 Zoll), 2.5D Double Defense Series Displayschutzfolie, Kratzfest, Anti-Fingerprint, und Blasenfrei",398,"9,85 €","4,3 von 5 Sternen",https://www.amazon.de/UNBREAKcable-Panzerglasfolie-Displayschutzfolie-Anti-Fingerprint-kofferfreundlich-Durchsichtig/dp/B07JNJGM1G?_encoding=UTF8&psc=1
B07GX33WVR,"Spigen, 2 Stück, Panzerglasfolie kompatibel mit iPhone 11, iPhone XR, Glas.tR EZ Fit, mit Schablone für Installation, 9H gehärtes Glas, Hüllenfreundlich, Schutzfolie für iPhone 11 (064GL25166)",283,"11,99 €","4,6 von 5 Sternen",https://www.amazon.de/Spigen-Panzerglasfolie-Installation-H%C3%BCllenfreundlich-064GL25166-durchsichtig/dp/B07GX33WVR?_encoding=UTF8&psc=1
B07PFSC6CW,"[4 Stück] OMOTON Schutzfolie für iphone 11 pro und iphone X und iphone XS Mit Positionierhilfe Panzerglasfolie für iphone 11 Pro/ XS/ X [9H Härte], [Anti-Kratzen], [Anti-Öl], [Anti-Bläschen].",146,"7,99 €","4,6 von 5 Sternen",https://www.amazon.de/OMOTON-Positionierhilfe-Panzerglasfolie-Anti-Kratzen-Anti-Bl%C3%A4schen-durchsichtig/dp/B07PFSC6CW?_encoding=UTF8&psc=1
B00GMED7YO,Batterie Knopfzelle 10 Stück AG 13 LR44,229,"2,45 €","4,5 von 5 Sternen",https://www.amazon.de/Batterie-Knopfzelle-St%C3%BCck-Camelion-Alkaline/dp/B00GMED7YO?_encoding=UTF8&psc=1
B006XE8DEC,"VARTA Batterien Electronics CR2025 Lithium Knopfzelle (3V Batterie, 5er Pack Knopfzellen in Original 5er Blisterverpackung)",450,"3,22 €","4,3 von 5 Sternen",https://www.amazon.de/Varta-Electronics-CR2025-Knopfzellen-Blisterverpackung-Silber/dp/B006XE8DEC?_encoding=UTF8&psc=1
B00TYEL11K,"VARTA Batterien Electronics Lithium Knopfzelle 3V Batterie 5er Pack Knopfzellen in Original 5er Blisterverpackung, CR2032",1.726,"4,17 €","4,4 von 5 Sternen",https://www.amazon.de/Varta-Electronics-Knopfzelle-Knopfzellen-Blisterverpackung/dp/B00TYEL11K?_encoding=UTF8&psc=1
B01F9RH0R4,"AmazonBasics Verbindungskabel Lightning-auf-USB-A, Nylon, geflochten, 1,8 m, zertifiziert von Apple, Dunkelgrau",1.282,"7,99 €","4,5 von 5 Sternen",https://www.amazon.de/AmazonBasics-Verbindungskabel-Lightning-auf-USB-geflochten-zertifiziert/dp/B01F9RH0R4?_encoding=UTF8&psc=1
B07VX691CC,TORRAS Ultra Clear iPhone 11 Pro Hülle(5.8) Transparent & Anti Gelb Aufgerüstet Material Handyhülle iPhone 11 Pro Case Hart PC Back& Weich TPU Bumper Klar Schutzhülle für iPhone 11 Pro - Transparent,45,"15,99 €","4,9 von 5 Sternen",https://www.amazon.de/TORRAS-Transparent-Aufger%C3%BCstet-Handyh%C3%BClle-Schutzh%C3%BClle/dp/B07VX691CC?_encoding=UTF8&psc=1
B07NQ7ZN4C,【Neuestes Modell】 Antimi Bluetooth Kopfhörer Kabellos in Ear Kopfhoerer Sport Wireless Bluetooth 5.0 Headset mit 140 Stunden Spielzeit/Digitalanzeige/IPX7 Wasserdicht für iPhone Huawei Samsung,505,"45,98 €","4,8 von 5 Sternen",https://www.amazon.de/%E3%80%90Neuestes-Antimi-Kopfhoerer-Digitalanzeige-Wasserdicht/dp/B07NQ7ZN4C?_encoding=UTF8&psc=1
B00VJT3IUA,"Anker Powerbank, PowerCore 20100mAh Externer Akku, hohe Kapazität 2-Port 4,8 A Output Ladegerät mit PowerIQ Technologie für iPhone, iPad, Samsung Galaxy und viele mehr (in Schwarz/Matt)",7.786,"29,99 €","4,5 von 5 Sternen",https://www.amazon.de/Anker-PowerCore-Powerbank-Kapazit%C3%A4t-Technologie-Schwarz/dp/B00VJT3IUA?_encoding=UTF8&psc=1
B01JS1WJP0,"Anker iPhone Ladekabel, Lightning Kabel 2-Pack 1.8m Nylon iPhone Kabel [MFi Zertifiziert] für iPhone XR iPhone 7,iPhone X,iPhone 8,iPhone 6s iPhone 6, iPhone 7, iPhone XS/XS MAX/8 Plus (Grau)",1.949,"15,99 €","4,4 von 5 Sternen",https://www.amazon.de/Anker-Lightning-Ladekabel-Zertifiziert-weitere-Grau/dp/B01JS1WJP0?_encoding=UTF8&psc=1
B00CWNMV4G,"AmazonBasics Vorgeladene Ni-MH AA-Akkus - Akkubatterien (1.000 Zyklen, typisch 2000mAh, minimal 1900mAh) 8 Stck (Äußere Hülle kann von Darstellung abweichen)",1.348,"13,99 €","4,3 von 5 Sternen",https://www.amazon.de/AmazonBasics-Vorgeladene-Ni-MH-AA-Akkus-Akkubatterien-Wei%C3%9F/dp/B00CWNMV4G?_encoding=UTF8&psc=1
,"LG Nexus 5 Nexus 5 X 32 GB 32 GB schwarz – Smartphone (Android, Android 6.0 Marshmallow, Balken, Kein Abonnement, Qualcomm Snapdragon, LPDDR3)",,,,https://www.amazon.de
B07PDHSPXT,"Echo Dot (3. Gen.) Intelligenter Lautsprecher mit Alexa, Sandstein Stoff",16.309,"42,99 €","4,6 von 5 Sternen",https://www.amazon.de/Echo-Dot-3-Gen-Intelligenter-Lautsprecher-mit-Alexa-Sandstein-Stoff/dp/B07PDHSPXT?_encoding=UTF8&psc=1
B07WGSWGNY,"CBBH Bluetooth Kopfhörer, in Ear Bluetooth 5.0 Headset Stereo-Minikopfhörer Sport Kabellose Kopfhörer mit Portable Mini Ladekästchen und Integriertem Mikrofon für Apple Airpod Android iPhone",111,"33,48 €","4,8 von 5 Sternen",https://www.amazon.de/CBBH-Bluetooth-Stereo-Minikopfh%C3%B6rer-Ladek%C3%A4stchen-Integriertem-white/dp/B07WGSWGNY?_encoding=UTF8&psc=1
B06XZH8SKF,"JETech Hülle für iPad (9,7 Zoll, Modell 2018/2017, 6. / 5. Generation), Intelligent Schutzhülle mit Auto Schlafen/Wachen, Schwarz",2.266,"9,99 €","4,6 von 5 Sternen",https://www.amazon.de/JETech-Intelligent-Schutzh%C3%BClle-Funktion-Schlafen-Schwarz/dp/B06XZH8SKF?_encoding=UTF8&psc=1
B07D6NGPNS,"UNBREAKcable iPhone Ladekabel, Lightning Kabel - 1M [MFi-Zertifiziert] - Datenkabel geeignet für iPhone X iPhone 8, iPhone 6s iPhone 6, iPhone 7, iPhone XS/XS MAX/XR, iPad Air (Silber-Grau)",770,"8,99 €","4,3 von 5 Sternen",https://www.amazon.de/UNBREAKcable-iPhone-Ladekabel-Lightning-Kabel-Silber-Grau/dp/B07D6NGPNS?_encoding=UTF8&psc=1
B07NH3C1KN,"Samsung Galaxy M20 Smartphone (16.0cm (6.3 Zoll) 64GB interner Speicher, 4GB RAM, Charcoal Black) - Deutsche Version [Exklusiv bei Amazon]",397,"229,00 €","4,4 von 5 Sternen",https://www.amazon.de/Samsung-Smartphone-interner-Speicher-Charcoal-Black/dp/B07NH3C1KN?_encoding=UTF8&psc=1
B0787SZTQV,"OMOTON [3 Stück] Schutzfolie für iPhone 8 Plus/iPhone 7 Plus [5,5 Zoll], mit Schablone,9H Härte,Anti-Kratzer,Anti-Öl,Anti-Bläschen",1.157,"8,99 €","4,3 von 5 Sternen",https://www.amazon.de/OMOTON-Schutzfolie-Plus-Anti-Kratzer-Anti-Bl%C3%A4schen-durchsichtig/dp/B0787SZTQV?_encoding=UTF8&psc=1
B01MG62Z5M,JBL T110 In-Ear-Kopfhörer mit Steuerung und Mikrofon schwarz,858,"9,99 €","4,0 von 5 Sternen",https://www.amazon.de/JBL-Ear-Kopfh%C3%B6rer-Steuerung-Mikrofon-schwarz/dp/B01MG62Z5M?_encoding=UTF8&psc=1
B079CKJ1MP,"Handyhalter fürs Auto Handyhalterung Auto Smartphone Halterung KFZ Handy Halter für Auto KFZ Handy Halterung für iPhone ,Samsung ,HTC,LG,HuaWei und jedes andere Smartphone oder GPS-Gerät, Autozubehör.",717,"9,99 €","4,5 von 5 Sternen",https://www.amazon.de/Handyhalter-Handyhalterung-Smartphone-Halterung-Autozubeh%C3%B6r-black/dp/B079CKJ1MP?_encoding=UTF8&psc=1
